<?xml version="1.0" encoding="UTF-8" standalone="no"?>
<!-- Created with Inkscape (http://www.inkscape.org/) -->

<svg
   xmlns:dc="http://purl.org/dc/elements/1.1/"
   xmlns:cc="http://creativecommons.org/ns#"
   xmlns:rdf="http://www.w3.org/1999/02/22-rdf-syntax-ns#"
   xmlns:svg="http://www.w3.org/2000/svg"
   xmlns="http://www.w3.org/2000/svg"
   xmlns:sodipodi="http://sodipodi.sourceforge.net/DTD/sodipodi-0.dtd"
   xmlns:inkscape="http://www.inkscape.org/namespaces/inkscape"
   width="512"
   height="512"
   viewBox="0 0 135.46667 135.46667"
   version="1.1"
   id="svg1848"
   inkscape:version="0.92.3 (2405546, 2018-03-11)"
   sodipodi:docname="balance.svg">
  <defs
     id="defs1842" />
  <sodipodi:namedview
     id="base"
     pagecolor="#ffffff"
     bordercolor="#666666"
     borderopacity="1.0"
     inkscape:pageopacity="0.0"
     inkscape:pageshadow="2"
     inkscape:zoom="1.4"
     inkscape:cx="222.79114"
     inkscape:cy="304.03971"
     inkscape:document-units="mm"
     inkscape:current-layer="layer1"
     showgrid="false"
     inkscape:window-width="2505"
     inkscape:window-height="1376"
     inkscape:window-x="1655"
     inkscape:window-y="27"
     inkscape:window-maximized="1"
     units="px" />
  <metadata
     id="metadata1845">
    <rdf:RDF>
      <cc:Work
         rdf:about="">
        <dc:format>image/svg+xml</dc:format>
        <dc:type
           rdf:resource="http://purl.org/dc/dcmitype/StillImage" />
        <dc:title></dc:title>
      </cc:Work>
    </rdf:RDF>
  </metadata>
  <g
     inkscape:groupmode="layer"
     id="layer4"
     inkscape:label="Layer 2" />
  <g
     inkscape:label="Layer 1"
     inkscape:groupmode="layer"
     id="layer1"
     transform="translate(0,-161.53334)">
    <path
       inkscape:connector-curvature="0"
       id="path5417"
       d="m 86.988183,162.02682 a 32.504687,14.265265 0 0 0 -32.504202,14.26506 32.504687,14.265265 0 0 0 0.147851,1.26232 v -0.25767 a 32.623869,14.265265 0 0 0 32.379763,12.67437 32.623869,14.265265 0 0 0 32.370415,-12.58197 32.504687,14.265265 0 0 0 0.11117,-1.09705 32.504687,14.265265 0 0 0 -32.50504,-14.26506 z M 54.991932,183.058 v 12.35037 a 32.504692,14.265265 0 0 0 31.996251,11.85347 32.504692,14.265265 0 0 0 31.956137,-11.80456 V 183.3135 A 32.623868,14.265265 0 0 1 87.011595,194.77557 32.623868,14.265265 0 0 1 54.991932,183.058 Z m 0,17.04738 v 12.73527 a 32.504691,14.265265 0 0 0 31.996251,11.85456 32.504691,14.265265 0 0 0 31.956137,-11.80564 V 200.33046 A 32.504689,14.265265 0 0 1 86.988183,212.0665 32.504689,14.265265 0 0 1 54.991932,200.10538 Z m 0,17.43339 v 12.73527 A 32.504691,14.265265 0 0 0 86.988183,242.1275 32.504691,14.265265 0 0 0 118.94432,230.32187 V 217.76274 A 32.504689,14.265265 0 0 1 86.988183,229.49988 32.504689,14.265265 0 0 1 54.991932,217.53877 Z m 0,17.43228 v 12.73526 A 32.504691,14.265265 0 0 0 86.988183,259.5598 32.504691,14.265265 0 0 0 118.94432,247.75416 V 235.19502 A 32.504689,14.265265 0 0 1 86.988183,246.93217 32.504689,14.265265 0 0 1 54.991932,234.97105 Z m 0,17.4323 v 12.73525 a 32.504689,14.265265 0 0 0 31.996251,11.8535 32.504689,14.265265 0 0 0 31.956137,-11.80456 v -12.5602 A 32.504689,14.265265 0 0 1 86.988183,264.36447 32.504689,14.265265 0 0 1 54.991932,252.40335 Z m 0,17.4323 v 15.11964 h 0.02053 a 31.984191,10.118031 0 0 0 -10e-4,0.005 31.984191,10.118031 0 0 0 31.984538,10.11819 31.984191,10.118031 0 0 0 31.98395,-10.11819 31.984191,10.118031 0 0 0 -0.0358,-0.32184 v -14.57867 a 32.504687,14.265265 0 0 1 -31.956119,11.73714 32.504687,14.265265 0 0 1 -31.99625,-11.96111 z"
       style="opacity:1;fill:#000000;fill-opacity:1;stroke:none;stroke-width:8.39280796;stroke-linecap:round;stroke-linejoin:round;stroke-miterlimit:4;stroke-dasharray:none;stroke-opacity:1;paint-order:normal" />
    <ellipse
       style="opacity:1;fill:#000000;fill-opacity:1;stroke:none;stroke-width:5.13637257;stroke-linecap:round;stroke-linejoin:round;stroke-miterlimit:4;stroke-dasharray:none;stroke-opacity:1;paint-order:normal"
       id="path6141"
       cx="-203.89876"
       cy="171.35944"
       rx="32.883926"
       ry="21.828125"
       transform="rotate(-58.401992)" />
  </g>
</svg>
